[
  {
    "id": 1,
    "genre_name": "Fiction",
    "authors": ["Edward Abbey", "Chinua Achebr"],
    "books": ["Things Fall Apart", "The Best of Edward Abbey"],
    "profitability": 10930,
    "2021_publis_numbers": 2414,
    "description": "Genre fiction, also known as popular fiction, is a term used in the book-trade for fictional works written with the intent of fitting into a specific literary genre, in order to appeal to readers and fans already familiar with that genre. Fiction is any creative work, chiefly any narrative work, portraying individuals, events, or places in ways that are imaginary or inconsistent with history, fact, or plausibility.In a narrow sense, fiction refers to written narratives in prose – often limited to novels, novellas, and short stories. More broadly, however, fiction encompasses imaginary narratives expressed in any medium, including not just writings but also live theatrical performances, films, television programs, radio dramas, comics, role-playing games, and video games.",
    "youtube_link": "https://www.youtube.com/watch?v=-_DN7l53J_c"
  },
  {
    "id": 2,
    "genre_name": "Biography & Autobiography",
    "authors": ["Peter Ackroyd"],
    "books": ["The Life of Thomas More"],
    "profitability": 30,
    "2021_publis_numbers": 20,
    "description": "Biographies are true stories about real people. They are set within a real historical framework with the unique social and political conditions that existed during the subject's life. Biographies can be about people who are alive or dead.  It involves more than just the basic facts like education, work, relationships, and death; it portrays a person's experience of these life events. Unlike a profile or curriculum vitae (résumé), a biography presents a subject's life story, highlighting various aspects of their life, including intimate details of experience, and may include an analysis of the subject's personality. Biographical works are usually non-fiction, but fiction can also be used to portray a person's life. One in-depth form of biographical coverage is called legacy writing. Works in diverse media, from literature to film, form the genre known as biography.",
    "youtube_link": "https://www.youtube.com/watch?v=4uVQ7A_uY1A"
  },
  {
    "id": 3,
    "genre_name": "Poetry",
    "authors": ["John Agard, Conrad Aiken"],
    "books": ["From the Devil's Pulpit", "The House of Dust: A Symphony"],
    "profitability": 12.3,
    "2021_publis_numbers": 130,
    "description": "Poetry is literature that evokes a concentrated imaginative awareness of experience or a specific emotional response through language chosen and arranged for its meaning, sound, and rhythm. Poetry (derived from the Greek poiesis, \"making\"), also called verse, is a form of literature that uses aesthetic and often rhythmic[1][2][3] qualities of language − such as phonaesthetics, sound symbolism, and metre − to evoke meanings in addition to, or in place of, a prosaic ostensible meaning. A poem is a literary composition, written by a poet, using this principle. Poetry has a long and varied history, evolving differentially across the globe. It dates back at least to prehistoric times with hunting poetry in Africa, and to panegyric and elegiac court poetry of the empires of the Nile, Niger, and Volta River valleys.[4] Some of the earliest written poetry in Africa occurs among the Pyramid Texts written during the 25th century BCE. The earliest surviving Western Asian epic poetry, the Epic of Gilgamesh, was written in Sumerian. Early poems in the Eurasian continent evolved from folk songs such as the Chinese Shijing, as well as religious hymns (the Sanskrit Rigveda, the Zoroastrian Gathas, the Hurrian songs, and the Hebrew Psalms); or from a need to retell oral epics, as with the Egyptian Story of Sinuhe, the Indian epic poetry, and the Homeric epics, the Iliad and the Odyssey. Ancient Greek attempts to define poetry, such as Aristotle's Poetics, focused on the uses of speech in rhetoric, drama, song, and comedy. Later attempts concentrated on features such as repetition, verse form, and rhyme, and emphasized the aesthetics which distinguish poetry from more objectively-informative prosaic writing.",
    "youtube_link": "https://www.youtube.com/watch?v=6SfPf-_OavY"
  },
  {
    "id": 4,
    "genre_name": "Literary Collections",
    "authors": ["Chinua Achebe"],
    "books": ["Home And Exile"],
    "profitability": 590,
    "2021_publis_numbers": 0,
    "description": "A literary collection is any publication that consists of two or more independent works by different literary authors not written specifically for the publication in hand, regardless of whether the work has a collective title. In the field of book publishing, a collection, or more precisely editorial collection (French: collection éditoriale; Spanish: colección editorial; Italian: collana editoriale; Portuguese: coleção de livros, lit. 'collection of books') is a set of books published by the same publisher, usually written by various authors, grouped under the same title, each book with a particular title. The collective title is the title of the collection, it must be mentioned on each book. The books that make up an editorial collection can be published in a specific order or not. When each volume in the collection has a serial number, it is called a numbered collection.",
    "youtube_link": "https://www.youtube.com/watch?v=NNIk2L7UBvY"
  },
  {
    "id": 5,
    "genre_name": "History",
    "authors": ["James Agee"],
    "books": ["Let Us Now Praise Famous Men", "Cotton Tenants"],
    "profitability": 736,
    "2021_publis_numbers": 1433,
    "description": "History is a genre that studies of change over time, and it covers all aspects of human society. Political, social, economic, scientific, technological, medical, cultural, intellectual, religious and military developments are all part of history. The history nonfiction book genre consists of events of significant change that happened in the past and the discovery, collection, presentation, and organization of the information. True accounts of actual events are the core of historical nonfiction.  The books from the history genre can revolve around a person or event that impacted the lives of many in a positive or negative way. The comparison of past cultures and discoveries versus the culture and implications those discoveries had on current times are also relevant to the history genre.",
    "youtube_link": "https://www.youtube.com/watch?v=k7zzwEXHtA4"
  },
  {
    "id": 6,
    "genre_name": "Drama",
    "authors": ["Edward Albee"],
    "books": ["Edward Albee's Fragments", "Counting the Ways and Listening"],
    "profitability": 0,
    "2021_publis_numbers": 21,
    "description": "The drama genre is strongly based in a character, or characters, that are in conflict at a crucial moment in their lives. Most dramas revolve around families and often have tragic or painful resolutions. Drama depends a lot on realistic characters dealing with emotional themes, such as: alcoholism, drug addiction, infidelity, morals, racism, religion, intolerance, sexuality, poverty, class issues, violence, and corruption [society or natural disasters can even be thrown in from time to time]. Drama often crosses over and meshes with other genres",
    "youtube_link": "https://www.youtube.com/watch?v=X7UoCVbTJGk"
  },
  {
    "id": 7,
    "genre_name": "Nature & Travel & Photography",
    "authors": ["Edward Abbey"],
    "books": ["Beyond the Wall"],
    "profitability": 343,
    "2021_publis_numbers": 0,
    "description": "The genre of travel literature encompasses outdoor literature, guide books, nature writing, and travel memoirs. Books in the nature nonfiction genre are about animals, plants, and other elements found in nature. The books in this genre are about the phenomenon of life in its original state or environment. They can also be about camping, hiking trails, and vacation destinations that get a human being closer to their roots by going back to nature and distancing themselves from civilization and technology.",
    "youtube_link": "https://www.youtube.com/watch?v=437_61pBGiI"
  },
  {
    "id": 8,
    "genre_name": "Performing Arts",
    "authors": ["Forrest J. Ackerman"],
    "books": ["Forrest J. Ackerman, Famous Monster of Filmland"],
    "profitability": 15,
    "2021_publis_numbers": 156,
    "description": "The performing arts are arts such as music, dance, and drama which are performed for an audience.[1] It is different from visual arts, which is the use of paint, canvas or various materials to create physical or static art objects. Performing arts include a range of disciplines which are performed in front of a live audience, including theatre, music, and dance. Theatre, music, dance and object manipulation, and other kinds of performances are present in all human cultures. The history of music and dance date to pre-historic times whereas circus skills date to at least Ancient Egypt. Many performing arts are performed professionally. Performance can be in purpose built buildings, such as theatres and opera houses, on open air stages at festivals, on stages in tents such as circuses and on the street. Live performances before an audience are a form of entertainment. The development of audio and video recording has allowed for private consumption of the performing arts. The performing arts often aims to express one's emotions and feelings.",
    "youtube_link": "https://www.youtube.com/watch?v=kUk6rl5GSFE"
  },
  {
    "id": 9,
    "genre_name": "Literary Criticism",
    "authors": ["Harold Bloom", "William Buttler Yeats", "C.S. Lewis"],
    "books": [
      "Practical Criticism",
      "The Great Tradition",
      "The Mirror and the Lamp."
    ],
    "profitability": 33,
    "description": "Literary criticism (or literary studies) is the study, evaluation, and interpretation of literature. Modern literary criticism is often influenced by literary theory, which is the philosophical discussion of literature's goals and methods. Though the two activities are closely related, literary critics are not always, and have not always been, theorists. Whether or not literary criticism should be considered a separate field of inquiry from literary theory, or conversely from book reviewing, is a matter of some controversy. For example, the Johns Hopkins Guide to Literary Theory and Criticism[1] draws no distinction between literary theory and literary criticism, and almost always uses the terms together to describe the same concept. Some critics consider literary criticism a practical application of literary theory, because criticism always deals directly with particular literary works, while theory may be more general or abstract. Literary criticism is often published in essay or book form. Academic literary critics teach in literature departments and publish in academic journals, and more popular critics publish their reviews in broadly circulating periodicals such as The Times Literary Supplement, The New York Times Book Review, The New York Review of Books, the London Review of Books, the Dublin Review of Books, The Nation, Bookforum, and The New Yorker.",
    "youtube_link": "https://www.youtube.com/watch?v=f7ScmrdS068"
  },
  {
    "id": 10,
    "genre_name": "Philosophy",
    "authors": "Sir Arthur Conan Doyle",
    "books": "A Study in Scarlet",
    "profitability": 0,
    "description": "Philosophy (from Greek: φιλοσοφία, philosophia, 'love of wisdom')[1][2] is the systematized study of general and fundamental questions, such as those about existence, reason, knowledge, values, mind, and language.[3][4][5] Such questions are often posed as problems[6][7] to be studied or resolved. Some sources claim the term was coined by Pythagoras (c. 570 – c. 495 BCE);[8][9] others dispute this story,[10][11] arguing that Pythagoreans merely claimed use of a preexisting term.[12] Philosophical methods include questioning, critical discussion, rational argument, and systematic presentation.[13][14][i]",
    "youtube_link": "https://www.youtube.com/watch?v=1A_CAkYt3GY"
  },
  {
    "id": 11,
    "genre_name": "Humor",
    "authors": "Sir Arthur Conan Doyle",
    "books": "A Study in Scarlet",
    "profitability": 0,
    "description": "Humor consists of discourses or works intended to be humorous or amusing by inducing laughter, especially in theatre, film, stand-up comedy, television, radio, books, or any other entertainment medium. The term originated in ancient Greece: in Athenian democracy, the public opinion of voters was influenced by political satire performed by comic poets in theaters.[1] The theatrical genre of Greek comedy can be described as a dramatic performance pitting two groups, ages, genders, or societies against each other in an amusing agon or conflict. Northrop Frye depicted these two opposing sides as a \"Society of Youth\" and a \"Society of the Old\". A revised view characterizes the essential agon of comedy as a struggle between a relatively powerless youth and the societal conventions posing obstacles to his hopes. In this struggle, the youth then becomes constrained by his lack of social authority, and is left with little choice but to resort to ruses which engender dramatic irony, which provokes laughter.[3]",
    "youtube_link": "https://www.youtube.com/watch?v=s7ilIYMqjJA"
  },
  {
    "id": 12,
    "genre_name": "Education",
    "authors": "Sir Arthur Conan Doyle",
    "books": "A Study in Scarlet",
    "profitability": 0,
    "description": " Books in the education nonfiction genre can either be books about forms of education and how it’s achieved or be educational itself, in the form of text books and educational materials. The act of educating is to impart something in a learnable way to someone that does not yet have that knowledge. There are educational systems that determine what is necessary for everyone in that society to know to function in a harmonious and effective way. Books in the education genre can argue the different types and vehicles of learning and what everyone should know as a baseline. They also can be text books that impart the knowledge through schools and studies.",
    "youtube_link": "https://www.youtube.com/watch?v=l0vfLGHoREU"
  },
  {
    "id": 13,
    "genre_name": "Comics & Graphic Novels",
    "authors": "Sir Arthur Conan Doyle",
    "books": "A Study in Scarlet",
    "profitability": 0,
    "description": "A graphic novel is a book made up of comics content. Although the word novel normally refers to long fictional works, the term graphic novel is applied broadly and includes fiction, non-fiction, and anthologized work. It is, at least in the United States, typically distinct from the term comic book, which is generally used for comics periodicals and trade paperbacks (see American comic book).[1][2] Fan historian Richard Kyle coined the term graphic novel in an essay in the November 1964 issue of the comics fanzine Capa-Alpha.[3][4] The term gained popularity in the comics community after the publication of Will Eisner's A Contract with God (1978) and the start of Marvel's Graphic Novel line (1982) and became familiar to the public in the late 1980s after the commercial successes of the first volume of Art Spiegelman's Maus in 1986, the collected editions of Frank Miller's The Dark Knight Returns in 1986 and Alan Moore and Dave Gibbons' Watchmen in 1987. The Book Industry Study Group began using graphic novel as a category in book stores in 2001.",
    "youtube_link": "https://www.youtube.com/watch?v=Uxdzu0-_yKQ"
  },
  {
    "id": 14,
    "genre_name": "Social Science",
    "authors": ["Iain M. Banks", "Malorie Blackman", "Renee Gladman"],
    "books": ["Fahrenheit 451", "Parable of the Sower", "Brave New World"],
    "profitability": 213,
    "description": "This genre involves the creation of imaginary worlds for the purpose of exploring the potential development of society represents one of the oldest traditions in literature. Positivist social scientists use methods resembling those of the natural sciences as tools for understanding society, and so define science in its stricter modern sense. Interpretivist social scientists, by contrast, may use social critique or symbolic interpretation rather than constructing empirically falsifiable theories, and thus treat science in its broader sense. In modern academic practice, researchers are often eclectic, using multiple methodologies (for instance, by combining both quantitative and qualitative research). The term social research has also acquired a degree of autonomy as practitioners from various disciplines share the same goals and methods.",
    "youtube_link": "https://www.youtube.com/watch?v=DSIdaTSG2Gg"
  },
  {
    "id": 15,
    "genre_name": "Political Science",
    "authors": ["Robert Goodin", "Karl Marx", "Plato"],
    "books": [
      "48 Laws of Power",
      "Behold a Pale Horse",
      "Principles Of Political Science"
    ],
    "profitability": 120,
    "description": "Political science genre focuses on the scientific study of politics. It is a social science dealing with systems of governance and power, and the analysis of political activities, political thought, political behavior, and associated constitutions and laws. The political genre is made up of books about different political viewpoints, their effects on society, and the politicians who were involved with laws, wars, and economics. Warfare, force, and power are also included in the political genre.",
    "youtube_link": "https://www.youtube.com/watch?v=jQK0Xbfel-M"
  },
  {
    "id": 16,
    "genre_name": "Sports & Recreation",
    "authors": ["K.J. Houtman", "Erik Stensland", "Aaron Reed"],
    "books": ["Next Level", "Endure", "You Win In The Locker Room First"],
    "profitability": 70,
    "description": "This genre is applied to titles showcase the talents of famous sportsmen and women, document memorable sporting events, instruct the viewer on general sports details. Sports books are action-oriented, fast-paced and full of memorable characters",
    "youtube_link": "https://www.youtube.com/watch?v=7IGbkhOV8Us"
  },
  {
    "id": 17,
    "genre_name": "Language Arts & Disciplines",
    "authors": ["Kam Knight", "Syd Field", "Lingo Mastery"],
    "books": ["Fit It! Grammar", "Between Worlds", "Well-Ordered Language"],
    "profitability": 27,
    "description": "Language arts genre has instruction that typically consists of a combination of reading, writing (composition), speaking, and listening. Language arts (also known as English language arts or ELA) is the study and improvement of the arts of language. Traditionally, the primary divisions in language arts are literature and language, where language in this case refers to both linguistics, and specific languages.[1] Language arts instruction typically consists of a combination of reading, writing (composition), speaking, and listening. In schools, language arts is taught alongside science, mathematics, and social studies",
    "youtube_link": "https://www.youtube.com/watch?v=w4Ic7hT-cd8"
  },
  {
    "id": 18,
    "genre_name": "Family & Relationships",
    "authors": ["Janet Fitch", "Leif Enger", "Carol Rifka Brunt"],
    "books": [
      "Tell the Wolves I'm Home",
      "Peace Like a River",
      "White Oleander"
    ],
    "profitability": 100,
    "description": "Books in the relationship nonfiction genre are made up of helpful, and sometimes humorous, guides to help with various stages and types of relationships. The books in this genre most often deal with dating, breakups, and divorce, but they can also be about other relationships as well. They can be about a mother/daughter relationship, for instance, and how to overcome clashes and struggles, etc.",
    "youtube_link": "https://www.youtube.com/watch?v=2mKynXdvfCg"
  },
  {
    "id": 19,
    "genre_name": "Cooking",
    "authors": ["Anthony Bourdain", "Peter Mayle", "Barbara Kingsolver"],
    "books": [
      "A Cook's Tour",
      "A Year in Provence",
      "Blood, Bones, and Butter"
    ],
    "profitability": 400,
    "description": "Cookbooks are a popular non-fiction genre that usually includes a collection of recipes and/ or cooking techniques. The primary focus of cookbooks is food and cooking, though many chef and food writer memoirs (such as Kitchen Confidential by Anthony Bourdain) are often grouped into this category as well. A cookbook or cookery book is a kitchen reference containing recipes. Cookbooks may be general, or may specialize in a particular cuisine or category of food. Recipes in cookbooks are organized in various ways: by course (appetizer, first course, main course, dessert), by main ingredient, by cooking technique, alphabetically, by region or country, and so on. They may include illustrations of finished dishes and preparation steps; discussions of cooking techniques, advice on kitchen equipment, ingredients, and substitutions; historical and cultural notes; and so on. Cookbooks may be written by individual authors, who may be chefs, cooking teachers, or other food writers; they may be written by collectives; or they may be anonymous. They may be addressed to home cooks, to professional restaurant cooks, to institutional cooks, or to more specialized audiences. Some cookbooks are didactic, with detailed recipes addressed to beginners or people learning to cook particular dishes or cuisines; others are simple aide-memoires, which may document the composition of a dish or even precise measurements, but not detailed techniques.",
    "youtube_link": "https://www.youtube.com/watch?v=27Wi3mLPFrY"
  },
  {
    "id": 20,
    "genre_name": "Science",
    "authors": ["Elizabeth Kolbert", "Michael Lewis", "Suzanne Simard"],
    "books": [
      "Under a White Sky:The Nature of the Future",
      "The Premonition: A Pandemic Story",
      "Finding the Mother Tree:"
    ],
    "profitability": 590.2,
    "description": " Books in the science nonfiction genre are about the systematic and organizing of knowledge in the form of testable explanations and predictions about the universe. The books in this genre study the structure and behavior of the physical and nature world through observation and experimentation (i.e. science experiments). They are books about how things work and react together and against each other in chemical and physical ways.",
    "youtube_link": "https://www.youtube.com/watch?v=bal-Htf1Ebo"
  },
  {
    "id": 21,
    "genre_name": "Art",
    "authors": ["Adriano Pedrosa", "Tomás Toledo", "Howie Chen"],
    "books": ["Afro-Atlantic Histories", "Godzilla", "Jasper Johns"],
    "profitability": 20,
    "description": "Genre art is the pictorial representation in any of various media of scenes or events from everyday life, such as markets, domestic settings, interiors, parties, inn scenes, and street scenes. Books in the art nonfiction genre are about some sort of artistic form: painting, sculpting, etc. The books can be about the technical aspects of the medium or art form, about the artists themselves, or about the history and meaning behind famous pieces and collections of art. The art genre can also encompass trends in modern art and decorating.",
    "youtube_link": "https://www.youtube.com/watch?v=3inY3LrjUBU"
  }
]
